Data_Analysis
…
Data_Analysis

2026-06-07

Import Data

Data Cleaning

## # A tibble: 2,400 × 24
##    source_file        participant_id trial choice1 rts1  stim1ons_sl stim1ons_ms
##    <chr>              <chr>          <dbl>   <dbl> <chr> <chr>       <chr>      
##  1 TwoStep_CCNP00133… CCNP001339         1       1 0.44… 332.514800  332.508900 
##  2 TwoStep_CCNP00133… CCNP001339         2       1 0.41… 6404.746200 6404.740900
##  3 TwoStep_CCNP00133… CCNP001339         3       1 0.20… 12745.5957… 12745.5903…
##  4 TwoStep_CCNP00133… CCNP001339         4       2 0.25… 17603.9149… 17603.9083…
##  5 TwoStep_CCNP00133… CCNP001339         5       2 0.16… 22219.1048… 22219.0994…
##  6 TwoStep_CCNP00133… CCNP001339         6       2 0.63… 26276.1028… 26276.0971…
##  7 TwoStep_CCNP00133… CCNP001339         7       2 0.28… 31354.1159… 31354.1101…
##  8 TwoStep_CCNP00133… CCNP001339         8       2 0.27… 35521.2624… 35521.2572…
##  9 TwoStep_CCNP00133… CCNP001339         9       2 0.23… 39770.0017… 39769.9964…
## 10 TwoStep_CCNP00133… CCNP001339        10       2 0.20… 43896.9186… 43896.9131…
## # ℹ 2,390 more rows
## # ℹ 17 more variables: choice1ons_sl <chr>, choice1ons_ms <chr>, state <dbl>,
## #   choice2 <dbl>, rts2 <chr>, stim2ons_sl <chr>, stim2ons_ms <chr>,
## #   choice2ons_sl <chr>, choice2ons_ms <chr>, SC_ID <chr>, won <dbl>,
## #   invalid_trial <lgl>, transition <chr>, prev_invalid <lgl>, stay <dbl>,
## #   prev_reward <dbl>, prev_transition <chr>
…
There are 55 lag_missing trials with NA:

12 first trials

30 missing choice_1

13 missing choice_2

## # A tibble: 53 × 25
##    source_file        participant_id trial choice1 rts1  stim1ons_sl stim1ons_ms
##    <chr>              <chr>          <dbl>   <dbl> <chr> <chr>       <chr>      
##  1 TwoStep_CCNP00133… CCNP001339         1       1 0.44… 332.514800  332.508900 
##  2 TwoStep_CCNP00144… CCNP001445         1       1 1.77… 323.090500  323.079500 
##  3 TwoStep_CCNP00144… CCNP001445       188       1 0.34… 1201600.56… 1201600.56…
##  4 TwoStep_CCNP00160… CCNP001604         1       2 2.20… 350.069800  350.063900 
##  5 TwoStep_CCNP00160… CCNP001604       132       1 0.71… 612204.631… 612204.626…
##  6 TwoStep_CCNP00160… CCNP001604       153       1 1.62… 729181.942… 729181.936…
##  7 TwoStep_CCNP00161… CCNP001613         1       1 1.88… 1152.426200 1152.412400
##  8 TwoStep_CCNP00161… CCNP001613        68       1 2.38… 318507.332… 318507.322…
##  9 TwoStep_CCNP00161… CCNP001613        69       2 0.32… 325925.635… 325925.628…
## 10 TwoStep_CCNP00163… CCNP001638         1       0 0.00… 464.197300  464.192000 
## # ℹ 43 more rows
## # ℹ 18 more variables: choice1ons_sl <chr>, choice1ons_ms <chr>, state <dbl>,
## #   choice2 <dbl>, rts2 <chr>, stim2ons_sl <chr>, stim2ons_ms <chr>,
## #   choice2ons_sl <chr>, choice2ons_ms <chr>, SC_ID <chr>, won <dbl>,
## #   invalid_trial <lgl>, transition <chr>, prev_invalid <lgl>, stay <dbl>,
## #   prev_reward <dbl>, prev_transition <chr>, lag_missing <lgl>
…
stay_summary

## # A tibble: 48 × 4
##    participant_id prev_reward_label prev_transition stay_prob
##    <chr>          <chr>             <chr>               <dbl>
##  1 CCNP001339     Rewarded          Common              0.976
##  2 CCNP001339     Rewarded          Rare                0.867
##  3 CCNP001339     Unrewarded        Common              0.721
##  4 CCNP001339     Unrewarded        Rare                0.962
##  5 CCNP001445     Rewarded          Common              0.794
##  6 CCNP001445     Rewarded          Rare                0.667
##  7 CCNP001445     Unrewarded        Common              0.792
##  8 CCNP001445     Unrewarded        Rare                0.538
##  9 CCNP001604     Rewarded          Common              0.705
## 10 CCNP001604     Rewarded          Rare                0.811
## # ℹ 38 more rows
…
# 3. Block transition fraction (overall)
block_transition <- stay_df_clean %>%
  mutate(transition = case_when(
    choice1 == 1 & state == 2 ~ "Common",
    choice1 == 2 & state == 3 ~ "Common",
    TRUE ~ "Rare"
  )) %>%
  group_by(participant_id, transition) %>%
  summarise(n = n(), .groups = "drop") %>%
  group_by(participant_id) %>%
  mutate(prop = n / sum(n))

print(block_transition)

## # A tibble: 24 × 4
## # Groups:   participant_id [12]
##    participant_id transition     n  prop
##    <chr>          <chr>      <int> <dbl>
##  1 CCNP001339     Common       144 0.72 
##  2 CCNP001339     Rare          56 0.28 
##  3 CCNP001445     Common       118 0.593
##  4 CCNP001445     Rare          81 0.407
##  5 CCNP001604     Common       137 0.692
##  6 CCNP001604     Rare          61 0.308
##  7 CCNP001613     Common       135 0.682
##  8 CCNP001613     Rare          63 0.318
##  9 CCNP001638     Common       136 0.694
## 10 CCNP001638     Rare          60 0.306
## # ℹ 14 more rows
# 4. Rocket transition fraction (by rocket, per subject)
rocket_transition_subj <- stay_df_clean %>%
  mutate(transition = case_when(
    choice1 == 1 & state == 2 ~ "Common",
    choice1 == 2 & state == 3 ~ "Common",
    TRUE ~ "Rare"
  )) %>%
  group_by(participant_id, choice1, transition) %>%
  summarise(n = n(), .groups = "drop") %>%
  group_by(participant_id, choice1) %>%
  mutate(prop = n / sum(n))

print(rocket_transition_subj)

## # A tibble: 48 × 5
## # Groups:   participant_id, choice1 [24]
##    participant_id choice1 transition     n  prop
##    <chr>            <dbl> <chr>      <int> <dbl>
##  1 CCNP001339           1 Common        76 0.685
##  2 CCNP001339           1 Rare          35 0.315
##  3 CCNP001339           2 Common        68 0.764
##  4 CCNP001339           2 Rare          21 0.236
##  5 CCNP001445           1 Common        89 0.601
##  6 CCNP001445           1 Rare          59 0.399
##  7 CCNP001445           2 Common        29 0.569
##  8 CCNP001445           2 Rare          22 0.431
##  9 CCNP001604           1 Common        90 0.672
## 10 CCNP001604           1 Rare          44 0.328
## # ℹ 38 more rows
…
Log Regression - ind. level

Interpretation: - 7 subj with positive β1 and negative β3 (most subj
are model based)

## # A tibble: 48 × 6
## # Groups:   participant_id [12]
##    participant_id term                      estimate std.error statistic p.value
##    <chr>          <chr>                        <dbl>     <dbl>     <dbl>   <dbl>
##  1 CCNP001339     (Intercept)                0.951       0.286    3.33   8.68e-4
##  2 CCNP001339     prev_reward                2.74        0.771    3.55   3.82e-4
##  3 CCNP001339     prev_transitionRare        2.27        1.06     2.14   3.22e-2
##  4 CCNP001339     prev_reward:prev_transit… -4.08        1.39    -2.95   3.22e-3
##  5 CCNP001445     (Intercept)                1.34        0.339    3.96   7.63e-5
##  6 CCNP001445     prev_reward                0.00730     0.460    0.0159 9.87e-1
##  7 CCNP001445     prev_transitionRare       -1.19        0.467   -2.54   1.11e-2
##  8 CCNP001445     prev_reward:prev_transit…  0.532       0.650    0.819  4.13e-1
##  9 CCNP001604     (Intercept)                1.37        0.289    4.74   2.18e-6
## 10 CCNP001604     prev_reward               -0.499       0.403   -1.24   2.16e-1
## # ℹ 38 more rows
…
